^C:\USERS\WONDERBIZ\DOWNLOADS\LIBCONFIG-1.4.9\LIBCONFIG-1.4.9\LIB\GRAMMAR.C|C:\USERS\WONDERBIZ\DOWNLOADS\LIBCONFIG-1.4.9\LIBCONFIG-1.4.9\LIB\LIBCONFIG.C|C:\USERS\WONDERBIZ\DOWNLOADS\LIBCONFIG-1.4.9\LIBCONFIG-1.4.9\LIB\SCANCTX.C|C:\USERS\WONDERBIZ\DOWNLOADS\LIBCONFIG-1.4.9\LIBCONFIG-1.4.9\LIB\SCANNER.C|C:\USERS\WONDERBIZ\DOWNLOADS\LIBCONFIG-1.4.9\LIBCONFIG-1.4.9\LIB\STRBUF.C
C:\USERS\WONDERBIZ\DOWNLOADS\LIBCONFIG-1.4.9\LIBCONFIG-1.4.9\LIB\LIBCONFIG.RELEASE\VC120.PDB
C:\USERS\WONDERBIZ\DOWNLOADS\LIBCONFIG-1.4.9\LIBCONFIG-1.4.9\LIB\LIBCONFIG.RELEASE\STRBUF.OBJ
C:\USERS\WONDERBIZ\DOWNLOADS\LIBCONFIG-1.4.9\LIBCONFIG-1.4.9\LIB\LIBCONFIG.RELEASE\SCANNER.OBJ
C:\USERS\WONDERBIZ\DOWNLOADS\LIBCONFIG-1.4.9\LIBCONFIG-1.4.9\LIB\LIBCONFIG.RELEASE\SCANCTX.OBJ
C:\USERS\WONDERBIZ\DOWNLOADS\LIBCONFIG-1.4.9\LIBCONFIG-1.4.9\LIB\LIBCONFIG.RELEASE\LIBCONFIG.OBJ
C:\USERS\WONDERBIZ\DOWNLOADS\LIBCONFIG-1.4.9\LIBCONFIG-1.4.9\LIB\LIBCONFIG.RELEASE\GRAMMAR.OBJ
^C:\USERS\WONDERBIZ\DOWNLOADS\LIBCONFIG-1.4.9\LIBCONFIG-1.4.9\LIB\GRAMMAR.C
C:\USERS\WONDERBIZ\DOWNLOADS\LIBCONFIG-1.4.9\LIBCONFIG-1.4.9\LIB\LIBCONFIG.RELEASE\VC120.PDB
^C:\USERS\WONDERBIZ\DOWNLOADS\LIBCONFIG-1.4.9\LIBCONFIG-1.4.9\LIB\LIBCONFIG.C
C:\USERS\WONDERBIZ\DOWNLOADS\LIBCONFIG-1.4.9\LIBCONFIG-1.4.9\LIB\LIBCONFIG.RELEASE\VC120.PDB
^C:\USERS\WONDERBIZ\DOWNLOADS\LIBCONFIG-1.4.9\LIBCONFIG-1.4.9\LIB\SCANCTX.C
C:\USERS\WONDERBIZ\DOWNLOADS\LIBCONFIG-1.4.9\LIBCONFIG-1.4.9\LIB\LIBCONFIG.RELEASE\VC120.PDB
^C:\USERS\WONDERBIZ\DOWNLOADS\LIBCONFIG-1.4.9\LIBCONFIG-1.4.9\LIB\SCANNER.C
C:\USERS\WONDERBIZ\DOWNLOADS\LIBCONFIG-1.4.9\LIBCONFIG-1.4.9\LIB\LIBCONFIG.RELEASE\VC120.PDB
^C:\USERS\WONDERBIZ\DOWNLOADS\LIBCONFIG-1.4.9\LIBCONFIG-1.4.9\LIB\STRBUF.C
C:\USERS\WONDERBIZ\DOWNLOADS\LIBCONFIG-1.4.9\LIBCONFIG-1.4.9\LIB\LIBCONFIG.RELEASE\VC120.PDB
